CL3_outfit.pbo

cl3_suit_black_black_black
cl3_suit_black_blue_black
cl3_suit_black_blue_brown
cl3_suit_black_red_black
cl3_suit_brown_blue_black
cl3_suit_gray_black_black
cl3_suit_pink_pink_black
cl3_suit_purple_white_black
cl3_suit_red_red_black
cl3_suit_white_white_black
cl3_suit_black_gold_black
cl3_Suit_pimp
cl3_suit_blue_black_black
cl3_Suit_white_black_black
cl3_Suit_green_blue_brown
cl3_Suit_black_pink_brown
cl3_Suit_grey_stripe_black
cl3_Suit_blue_purple_black
cl3_Suit_red_black_black

A3L_civ_uniform.pbo

A3L_Dude_Outfit
A3L_Farmer_Outfit
A3L_prisoner_Outfit
A3L_Worker_Outfit
A3L_SECRET
A3L_SpookyMummy
A3L_Bikini_Girl

a3l_civ1.pbo

Zannaza69
Caiden69
RastaCiv
A3LShirt

["UVF_Soldier_Outfit_2",nil,10],
["UVF_Soldier_Outfit_2",nil,10],
["UVF_Soldier_Outfit_1",nil,10],
["UVF_Soldier_Outfit_1",nil,10],
["UVF_Soldier_Outfit_3",nil,10],
["UVF_Soldier_Outfit_3",nil,10],
["UVF_Soldier_Outfit_4",nil,10],
["UVF_Soldier_Outfit_4",nil,10],
["UVF_Soldier_Outfit_5",nil,10],
["UVF_Soldier_Outfit_5",nil,10],
["UVF_Soldier_Outfit_6",nil,10],
["UVF_Soldier_Outfit_6",nil,10],
["Zannaza69",nil,10],
["A3L_Civ1",nil,10],
["arma3",nil,10],
["A3L_A3",nil,10],
["walkingdead",nil,10],
["A3L_walkingdead",nil,10],
["arma3black",nil,10],
["A3L_A3blk",nil,10],
["tacobell",nil,10],
["A3L_taco",nil,10],
["SFG",nil,10],
["A3L_sfgiant",nil,10],
["dutch",nil,10],
["A3L_dutch",nil,10],
["BreakingBad",nil,10],
["A3L_Civ16",nil,10],
["phalps",nil,10],
["A3L_Phelps",nil,10],
["norway",nil,10],
["A3L_Civ18",nil,10],
["PH",nil,10],
["A3L_Civ19",nil,10],
["Caiden69",nil,10],
["A3L_Civ2",nil,10],
["HI1",nil,10],
["A3L_Civ20",nil,10],
["A3L_SkullBlack",nil,10],
["A3L_Civ21",nil,10],
["A3L_A3LogoPants",nil,10],
["A3L_A3Logo",nil,10],
["A3L_SkidRow",nil,10],
["A3L_Civ23",nil,10],
["A3L_A3LogoPants",nil,10],
["A3L_A3Logo",nil,10],
["A3L_Poop2day",nil,10],
["A3L_Poo2day",nil,10],
["RastaCiv",nil,10],
["A3L_Civ3",nil,10],
["A3LShirt",nil,10],
["A3L_Civ4",nil,10],
["RFShirt",nil,10],
["A3L_Civ5",nil,10],
["hanacd",nil,10],
["A3L_academic",nil,10],
["nvidia",nil,10],
["A3L_nvidia",nil,10],
["ATI",nil,10],
["A3L_ati",nil,10],
["A3L_Dude_Outfit",nil,10],
["A3L_Dude_Outfit",nil,10],
["A3L_Farmer_Outfit",nil,10],
["A3L_prisoner_Outfit",nil,10],
["A3L_Worker_Outfit",nil,10],
["A3L_SECRET",nil,10],
["A3L_SpookyMummy",nil,10],
["A3L_SpookyMummy",nil,10],
["A3L_Bikini_Girl",nil,10],
["A3L_Dude_Outfit",nil,10],
["A3L_Farmer_Outfit",nil,10],
["A3L_Prisoner_Outfit",nil,10],
["A3L_Worker_Outfit",nil,10],
["A3L_SECRET",nil,10],
["A3L_SpookyMummy",nil,10],
["A3L_Zombie",nil,10],
["A3L_Bikini_Girl",nil,10],

["U_B_Wetsuit",nil,2000]
["cl3_cn_uniform",nil,10],
["cl3_emt_uniform",nil,10],
["cl3_emtCG_uniform",nil,10],
["cl3_emtMR_uniform",nil,10],
["cl3_etu_uniform",nil,10],
["cl3_mpg_uniform",nil,10],
["cl3_patrol_uniform",nil,10],
["cl3_traffic_uniform",nil,10],
["cl3_cn_uniform",nil,10],
["cl3_emt_uniform",nil,10],
["cl3_emtMR_uniform",nil,10],
["cl3_emtCG_uniform",nil,10],
["cl3_etu_uniform",nil,10],
["cl3_mpg_uniform",nil,10],
["cl3_patrol_uniform",nil,10],
["cl3_traffic_uniform",nil,10],
["cl3_suit_black_black_black",nil,10],
["cl3_suit_black_blue_black",nil,10],
["cl3_suit_black_blue_brown",nil,10],
["cl3_suit_black_red_black",nil,10],
["cl3_suit_brown_blue_black",nil,10],
["cl3_suit_gray_black_black",nil,10],
["cl3_suit_pink_pink_black",nil,10],
["cl3_suit_purple_white_black",nil,10],
["cl3_suit_red_red_black",nil,10],
["cl3_suit_white_white_black",nil,10],
["cl3_suit_black_gold_black",nil,10],
["cl3_Suit_pimp",nil,10],
["cl3_suit_blue_black_black",nil,10],
["cl3_Suit_white_black_black",nil,10],
["cl3_Suit_green_blue_brown",nil,10],
["cl3_Suit_black_pink_brown",nil,10],
["cl3_Suit_grey_stripe_black",nil,10],
["cl3_Suit_blue_purple_black",nil,10],
["cl3_Suit_red_black_black",nil,10],
["cl3_suit_black_black_black",nil,10],
["cl3_suit_black_blue_black",nil,10],
["cl3_suit_black_blue_brown",nil,10],
["cl3_suit_black_red_black",nil,10],
["cl3_suit_brown_blue_black",nil,10],
["cl3_suit_gray_black_black",nil,10],
["cl3_suit_pink_pink_black",nil,10],
["cl3_suit_purple_white_black",nil,10],
["cl3_suit_red_red_black",nil,10],
["cl3_suit_white_white_black",nil,10],
["cl3_suit_black_gold_black",nil,10],
["cl3_Suit_pimp",nil,10],
["cl3_suit_blue_black_black",nil,10],
["cl3_Suit_white_black_black",nil,10],
["cl3_Suit_green_blue_brown",nil,10],
["cl3_Suit_black_pink_brown",nil,10],
["cl3_Suit_grey_stripe_black",nil,10],
["cl3_Suit_blue_purple_black",nil,10],
["cl3_Suit_red_black_black",nil,10],
["cl3_coveralls_maxprisoner_uniform",nil,10],
["cl3_coveralls_mechanic_uniform",nil,10],
["cl3_coveralls_prisoner_uniform",nil,10],
["cl3_coveralls_repo_uniform",nil,10],
["cl3_coveralls_sweeper_uniform",nil,10],
["cl3_coveralls_testdummy_uniform",nil,10],
["cl3_coveralls_asu_uniform",nil,10],
["cl3_coveralls_FD_black_uniform",nil,10],
["cl3_coveralls_FD_brown_uniform",nil,10],
["cl3_coveralls_FD_sage_uniform",nil,10],
["cl3_coveralls_FD_sage1_uniform",nil,10],
["cl3_coveralls_FDP_uniform",nil,10],
["cl3_coveralls_MRP_uniform",nil,10],
["cl3_coveralls_PMP_uniform",nil,10],
["cl3_coveralls_maxprisoner_uniform",nil,10],
["cl3_coveralls_mechanic_uniform",nil,10],
["cl3_coveralls_prisoner_uniform",nil,10],
["cl3_coveralls_repo_uniform",nil,10],
["cl3_coveralls_sweeper_uniform",nil,10],
["cl3_coveralls_testdummy_uniform",nil,10],
["cl3_coveralls_asu_uniform",nil,10],
["cl3_coveralls_FD_black_uniform",nil,10],
["cl3_coveralls_FD_brown_uniform",nil,10],
["cl3_coveralls_FD_sage_uniform",nil,10],
["cl3_coveralls_FD_sage1_uniform",nil,10],
["cl3_coveralls_FDP_uniform",nil,10],
["cl3_coveralls_MRP_uniform",nil,10],
["cl3_coveralls_PMP_uniform",nil,10],
["cl3_c_poloshirt_funk_co_uniform",nil,10],
["cl3_c_poloshirt_gravity_co_uniform",nil,10],
["cl3_c_poloshirt_funk_co_uniform",nil,10],
["cl3_c_poloshirt_gravity_co_uniform",nil,10],
["cl3_citizen2_1_uniform",nil,10],
["cl3_citizen2_2_uniform",nil,10],
["cl3_citizen2_3_uniform",nil,10],
["cl3_citizen2_4_uniform",nil,10],
["cl3_citizen2_5_uniform",nil,10],
["cl3_citizen2_6_uniform",nil,10],
["cl3_citizen2_7_uniform",nil,10],
["cl3_citizen2_8_uniform",nil,10],
["cl3_citizen2_9_uniform",nil,10],
["cl3_citizen2_10_uniform",nil,10],
["cl3_citizen2_11_uniform",nil,10],
["cl3_citizen2_12_uniform",nil,10],
["cl3_citizen2_13_uniform",nil,10],
["cl3_citizen2_14_uniform",nil,10],
["cl3_citizen2_15_uniform",nil,10],
["cl3_citizen2_16_uniform",nil,10],
["cl3_citizen2_17_uniform",nil,10],
["cl3_citizen2_18_uniform",nil,10],
["cl3_citizen2_19_uniform",nil,10],
["cl3_citizen2_20_uniform",nil,10],
["cl3_citizen2_21_uniform",nil,10],
["cl3_citizen2_22_uniform",nil,10],
["cl3_citizen2_23_uniform",nil,10],
["cl3_citizen2_24_uniform",nil,10],
["cl3_citizen2_25_uniform",nil,10],
["cl3_citizen2_1_uniform",nil,10],
["cl3_citizen2_2_uniform",nil,10],
["cl3_citizen2_3_uniform",nil,10],
["cl3_citizen2_4_uniform",nil,10],
["cl3_citizen2_5_uniform",nil,10],
["cl3_citizen2_6_uniform",nil,10],
["cl3_citizen2_7_uniform",nil,10],
["cl3_citizen2_8_uniform",nil,10],
["cl3_citizen2_9_uniform",nil,10],
["cl3_citizen2_10_uniform",nil,10],
["cl3_citizen2_11_uniform",nil,10],
["cl3_citizen2_12_uniform",nil,10],
["cl3_citizen2_13_uniform",nil,10],
["cl3_citizen2_14_uniform",nil,10],
["cl3_citizen2_15_uniform",nil,10],
["cl3_citizen2_16_uniform",nil,10],
["cl3_citizen2_17_uniform",nil,10],
["cl3_citizen2_18_uniform",nil,10],
["cl3_citizen2_19_uniform",nil,10],
["cl3_citizen2_20_uniform",nil,10],
["cl3_citizen2_21_uniform",nil,10],
["cl3_citizen2_22_uniform",nil,10],
["cl3_citizen2_23_uniform",nil,10],
["cl3_citizen2_24_uniform",nil,10],
["cl3_citizen2_25_uniform",nil,10],
["cl3_citizen3_1_uniform",nil,10],
["cl3_citizen3_2_uniform",nil,10],
["cl3_citizen3_3_uniform",nil,10],
["cl3_citizen3_4_uniform",nil,10],
["cl3_citizen3_5_uniform",nil,10],
["cl3_citizen3_6_uniform",nil,10],
["cl3_citizen3_7_uniform",nil,10],
["cl3_citizen3_8_uniform",nil,10],
["cl3_citizen3_9_uniform",nil,10],
["cl3_citizen3_10_uniform",nil,10],
["cl3_citizen3_11_uniform",nil,10],
["cl3_citizen3_12_uniform",nil,10],
["cl3_citizen3_13_uniform",nil,10],
["cl3_citizen3_14_uniform",nil,10],
["cl3_citizen3_15_uniform",nil,10],
["cl3_citizen3_16_uniform",nil,10],
["cl3_citizen3_17_uniform",nil,10],
["cl3_citizen3_18_uniform",nil,10],
["cl3_citizen3_19_uniform",nil,10],
["cl3_citizen3_20_uniform",nil,10],
["cl3_citizen3_21_uniform",nil,10],
["cl3_citizen3_22_uniform",nil,10],
["cl3_citizen3_23_uniform",nil,10],
["cl3_citizen3_24_uniform",nil,10],
["cl3_citizen3_25_uniform",nil,10],
["cl3_citizen3_1_uniform",nil,10],
["cl3_citizen3_2_uniform",nil,10],
["cl3_citizen3_3_uniform",nil,10],
["cl3_citizen3_4_uniform",nil,10],
["cl3_citizen3_5_uniform",nil,10],
["cl3_citizen3_6_uniform",nil,10],
["cl3_citizen3_7_uniform",nil,10],
["cl3_citizen3_8_uniform",nil,10],
["cl3_citizen3_9_uniform",nil,10],
["cl3_citizen3_10_uniform",nil,10],
["cl3_citizen3_11_uniform",nil,10],
["cl3_citizen3_12_uniform",nil,10],
["cl3_citizen3_13_uniform",nil,10],
["cl3_citizen3_14_uniform",nil,10],
["cl3_citizen3_15_uniform",nil,10],
["cl3_citizen3_16_uniform",nil,10],
["cl3_citizen3_17_uniform",nil,10],
["cl3_citizen3_18_uniform",nil,10],
["cl3_citizen3_19_uniform",nil,10],
["cl3_citizen3_20_uniform",nil,10],
["cl3_citizen3_21_uniform",nil,10],
["cl3_citizen3_22_uniform",nil,10],
["cl3_citizen3_23_uniform",nil,10],
["cl3_citizen3_24_uniform",nil,10],
["cl3_citizen3_25_uniform",nil,10],
["cl3_citizen4_1_uniform",nil,10],
["cl3_citizen4_2_uniform",nil,10],
["cl3_citizen4_3_uniform",nil,10],
["cl3_citizen4_4_uniform",nil,10],
["cl3_citizen4_5_uniform",nil,10],
["cl3_citizen4_6_uniform",nil,10],
["cl3_citizen4_7_uniform",nil,10],
["cl3_citizen4_8_uniform",nil,10],
["cl3_citizen4_9_uniform",nil,10],
["cl3_citizen4_10_uniform",nil,10],
["cl3_citizen4_11_uniform",nil,10],
["cl3_citizen4_12_uniform",nil,10],
["cl3_citizen4_13_uniform",nil,10],
["cl3_citizen4_14_uniform",nil,10],
["cl3_citizen4_15_uniform",nil,10],
["cl3_citizen4_16_uniform",nil,10],
["cl3_citizen4_17_uniform",nil,10],
["cl3_citizen4_18_uniform",nil,10],
["cl3_citizen4_19_uniform",nil,10],
["cl3_citizen4_20_uniform",nil,10],
["cl3_citizen4_21_uniform",nil,10],
["cl3_citizen4_22_uniform",nil,10],
["cl3_citizen4_23_uniform",nil,10],
["cl3_citizen4_24_uniform",nil,10],
["cl3_citizen4_25_uniform",nil,10],
["cl3_citizen4_1_uniform",nil,10],
["cl3_citizen4_2_uniform",nil,10],
["cl3_citizen4_3_uniform",nil,10],
["cl3_citizen4_4_uniform",nil,10],
["cl3_citizen4_5_uniform",nil,10],
["cl3_citizen4_6_uniform",nil,10],
["cl3_citizen4_7_uniform",nil,10],
["cl3_citizen4_8_uniform",nil,10],
["cl3_citizen4_9_uniform",nil,10],
["cl3_citizen4_10_uniform",nil,10],
["cl3_citizen4_11_uniform",nil,10],
["cl3_citizen4_12_uniform",nil,10],
["cl3_citizen4_13_uniform",nil,10],
["cl3_citizen4_14_uniform",nil,10],
["cl3_citizen4_15_uniform",nil,10],
["cl3_citizen4_16_uniform",nil,10],
["cl3_citizen4_17_uniform",nil,10],
["cl3_citizen4_18_uniform",nil,10],
["cl3_citizen4_19_uniform",nil,10],
["cl3_citizen4_20_uniform",nil,10],
["cl3_citizen4_21_uniform",nil,10],
["cl3_citizen4_22_uniform",nil,10],
["cl3_citizen4_23_uniform",nil,10],
["cl3_citizen4_24_uniform",nil,10],
["cl3_citizen4_25_uniform",nil,10],
["cl3_hunter_bushman_hunter1_uniform",nil,10],
["cl3_hunter_bushman_hunter2_uniform",nil,10],
["cl3_hunter_bushman_hunter3_uniform",nil,10],
["cl3_hunter_bushman_hunter4_uniform",nil,10],
["cl3_hunter_bushman_hunter1_uniform",nil,10],
["cl3_hunter_bushman_hunter2_uniform",nil,10],
["cl3_hunter_bushman_hunter3_uniform",nil,10],
["cl3_hunter_bushman_hunter4_uniform",nil,10],
["cl3_hunter_bushman_vip_uniform",nil,10],
["cl3_c_poloshirtpants_1_uniform",nil,10],
["cl3_c_poloshirtpants_1_uniform",nil,10],
["cl3_c_poloshirt_1_uniform",nil,10],
["cl3_c_poloshirt_2_uniform",nil,10],
["cl3_c_poloshirt_3_uniform",nil,10],
["cl3_c_poloshirt_4_uniform",nil,10],
["cl3_c_poloshirt_5_uniform",nil,10],
["cl3_c_poloshirt_6_uniform",nil,10],
["cl3_c_poloshirt_7_uniform",nil,10],
["cl3_c_poloshirt_8_uniform",nil,10],
["cl3_c_poloshirt_9_uniform",nil,10],
["cl3_c_poloshirt_10_uniform",nil,10],
["cl3_c_poloshirt_11_uniform",nil,10],
["cl3_c_poloshirt_12_uniform",nil,10],
["cl3_c_poloshirt_13_uniform",nil,10],
["cl3_c_poloshirt_14_uniform",nil,10],
["cl3_c_poloshirt_15_uniform",nil,10],
["cl3_c_poloshirt_16_uniform",nil,10],
["cl3_c_poloshirt_17_uniform",nil,10],
["cl3_c_poloshirt_18_uniform",nil,10],
["cl3_c_poloshirt_19_uniform",nil,10],
["cl3_c_poloshirt_20_uniform",nil,10],
["cl3_c_poloshirt_21_uniform",nil,10],
["cl3_c_poloshirt_22_uniform",nil,10],
["cl3_c_poloshirt_23_uniform",nil,10],
["cl3_c_poloshirt_1_uniform",nil,10],
["cl3_c_poloshirt_2_uniform",nil,10],
["cl3_c_poloshirt_3_uniform",nil,10],
["cl3_c_poloshirt_4_uniform",nil,10],
["cl3_c_poloshirt_5_uniform",nil,10],
["cl3_c_poloshirt_6_uniform",nil,10],
["cl3_c_poloshirt_7_uniform",nil,10],
["cl3_c_poloshirt_8_uniform",nil,10],
["cl3_c_poloshirt_9_uniform",nil,10],
["cl3_c_poloshirt_10_uniform",nil,10],
["cl3_c_poloshirt_11_uniform",nil,10],
["cl3_c_poloshirt_12_uniform",nil,10],
["cl3_c_poloshirt_13_uniform",nil,10],
["cl3_c_poloshirt_14_uniform",nil,10],
["cl3_c_poloshirt_15_uniform",nil,10],
["cl3_c_poloshirt_16_uniform",nil,10],
["cl3_c_poloshirt_17_uniform",nil,10],
["cl3_c_poloshirt_18_uniform",nil,10],
["cl3_c_poloshirt_19_uniform",nil,10],
["cl3_c_poloshirt_20_uniform",nil,10],
["cl3_c_poloshirt_21_uniform",nil,10],
["cl3_c_poloshirt_22_uniform",nil,10],
["cl3_c_poloshirt_23_uniform",nil,10],
["cl3_c_poloshirtpants_1_uniform",nil,10],
["cl3_c_poloshirtpants_2_uniform",nil,10],
["cl3_c_poloshirtpants_3_uniform",nil,10],
["cl3_c_poloshirtpants_4_uniform",nil,10],
["cl3_c_poloshirtpants_5_uniform",nil,10],
["cl3_c_poloshirtpants_6_uniform",nil,10],
["cl3_c_poloshirtpants_7_uniform",nil,10],
["cl3_c_poloshirtpants_8_uniform",nil,10],
["cl3_c_poloshirtpants_9_uniform",nil,10],
["cl3_c_poloshirtpants_10_uniform",nil,10],
["cl3_c_poloshirtpants_11_uniform",nil,10],
["cl3_c_poloshirtpants_12_uniform",nil,10],
["cl3_c_poloshirtpants_13_uniform",nil,10],
["cl3_c_poloshirtpants_14_uniform",nil,10],
["cl3_c_poloshirtpants_15_uniform",nil,10],
["cl3_c_poloshirtpants_16_uniform",nil,10],
["cl3_c_poloshirtpants_17_uniform",nil,10],
["cl3_c_poloshirtpants_18_uniform",nil,10],
["cl3_c_poloshirtpants_19_uniform",nil,10],
["cl3_c_poloshirtpants_20_uniform",nil,10],
["cl3_c_poloshirtpants_21_uniform",nil,10],
["cl3_c_poloshirtpants_22_uniform",nil,10],
["cl3_c_poloshirtpants_23_uniform",nil,10],
["cl3_c_poloshirtpants_24_uniform",nil,10],
["cl3_c_poloshirtpants_25_uniform",nil,10],
["cl3_c_poloshirtpants_26_uniform",nil,10],
["cl3_c_poloshirtpants_bus_uniform",nil,10],
["cl3_c_poloshirtpants_clpdpatrol_uniform",nil,10],
["cl3_c_poloshirtpants_clpdcom_uniform",nil,10],
["cl3_c_poloshirtpants_clpdtraffic_uniform",nil,10],
["cl3_c_poloshirtpants_CHIEF_uniform",nil,10],
["cl3_c_poloshirtpants_CG_uniform",nil,10],
["cl3_c_poloshirtpants_CLN_uniform",nil,10],
["cl3_c_poloshirtpants_FD_uniform",nil,10],
["cl3_c_poloshirtpants_MR_uniform",nil,10],
["cl3_c_poloshirtpants_PM_uniform",nil,10],
["cl3_c_poloshirtpants_1_uniform",nil,10],
["cl3_c_poloshirtpants_2_uniform",nil,10],
["cl3_c_poloshirtpants_3_uniform",nil,10],
["cl3_c_poloshirtpants_4_uniform",nil,10],
["cl3_c_poloshirtpants_5_uniform",nil,10],
["cl3_c_poloshirtpants_6_uniform",nil,10],
["cl3_c_poloshirtpants_7_uniform",nil,10],
["cl3_c_poloshirtpants_8_uniform",nil,10],
["cl3_c_poloshirtpants_9_uniform",nil,10],
["cl3_c_poloshirtpants_10_uniform",nil,10],
["cl3_c_poloshirtpants_11_uniform",nil,10],
["cl3_c_poloshirtpants_12_uniform",nil,10],
["cl3_c_poloshirtpants_13_uniform",nil,10],
["cl3_c_poloshirtpants_14_uniform",nil,10],
["cl3_c_poloshirtpants_15_uniform",nil,10],
["cl3_c_poloshirtpants_16_uniform",nil,10],
["cl3_c_poloshirtpants_17_uniform",nil,10],
["cl3_c_poloshirtpants_18_uniform",nil,10],
["cl3_c_poloshirtpants_19_uniform",nil,10],
["cl3_c_poloshirtpants_20_uniform",nil,10],
["cl3_c_poloshirtpants_21_uniform",nil,10],
["cl3_c_poloshirtpants_22_uniform",nil,10],
["cl3_c_poloshirtpants_23_uniform",nil,10],
["cl3_c_poloshirtpants_24_uniform",nil,10],
["cl3_c_poloshirtpants_25_uniform",nil,10],
["cl3_c_poloshirtpants_26_uniform",nil,10],
["cl3_c_poloshirtpants_bus_uniform",nil,10],
["cl3_c_poloshirtpants_clpdpatrol_uniform",nil,10],
["cl3_c_poloshirtpants_clpdcom_uniform",nil,10],
["cl3_c_poloshirtpants_clpdtraffic_uniform",nil,10],
["cl3_c_poloshirtpants_CHIEF_uniform",nil,10],
["cl3_c_poloshirtpants_CG_uniform",nil,10],
["cl3_c_poloshirtpants_CLN_uniform",nil,10],
["cl3_c_poloshirtpants_FD_uniform",nil,10],
["cl3_c_poloshirtpants_MR_uniform",nil,10],
["cl3_c_poloshirtpants_PM_uniform",nil,10],
["cl3_pilot_CGP_uniform",nil,10],
["cl3_pilot_CGP_uniform",nil,10],
["cl3_Wetsuit_2tone1",nil,10],
["cl3_Wetsuit_2tone2",nil,10],
["cl3_Wetsuit_2tone3",nil,10],
["cl3_Wetsuit_2tone4",nil,10],
["cl3_Wetsuit_2tone5",nil,10],
["cl3_Wetsuit_aqua",nil,10],
["cl3_Wetsuit_baby_blue",nil,10],
["cl3_Wetsuit_baby_pink",nil,10],
["cl3_Wetsuit_burgundy",nil,10],
["cl3_Wetsuit_carbon",nil,10],
["cl3_Wetsuit_cardinal",nil,10],
["cl3_Wetsuit_dark_green",nil,10],
["cl3_Wetsuit_gold",nil,10],
["cl3_Wetsuit_green",nil,10],
["cl3_Wetsuit_grey",nil,10],
["cl3_Wetsuit_lavender",nil,10],
["cl3_Wetsuit_light_blue",nil,10],
["cl3_Wetsuit_light_yellow",nil,10],
["cl3_Wetsuit_lime",nil,10],
["cl3_Wetsuit_marina_blue",nil,10],
["cl3_Wetsuit_navy_blue",nil,10],
["cl3_Wetsuit_orange",nil,10],
["cl3_Wetsuit_pink",nil,10],
["cl3_Wetsuit_purple",nil,10],
["cl3_Wetsuit_red",nil,10],
["cl3_Wetsuit_sand",nil,10],
["cl3_Wetsuit_silver",nil,10],
["cl3_Wetsuit_skin_black",nil,10],
["cl3_Wetsuit_skin_blue",nil,10],
["cl3_Wetsuit_skin_camo",nil,10],
["cl3_Wetsuit_skin_camo_urban",nil,10],
["cl3_Wetsuit_skin_darkgreen",nil,10],
["cl3_Wetsuit_skin_darkred",nil,10],
["cl3_Wetsuit_skin_flame",nil,10],
["cl3_Wetsuit_skin_flame1",nil,10],
["cl3_Wetsuit_skin_flame2",nil,10],
["cl3_Wetsuit_skin_green",nil,10],
["cl3_Wetsuit_skin_orange",nil,10],
["cl3_Wetsuit_skin_pink",nil,10],
["cl3_Wetsuit_skin_purple",nil,10],
["cl3_Wetsuit_skin_red",nil,10],
["cl3_Wetsuit_skin_silver",nil,10],
["cl3_Wetsuit_skin_white",nil,10],
["cl3_Wetsuit_skin_yellow",nil,10],
["cl3_Wetsuit_sky_blue",nil,10],
["cl3_Wetsuit_2tone1",nil,10],
["cl3_Wetsuit_2tone2",nil,10],
["cl3_Wetsuit_2tone3",nil,10],
["cl3_Wetsuit_2tone4",nil,10],
["cl3_Wetsuit_2tone5",nil,10],
["cl3_Wetsuit_aqua",nil,10],
["cl3_Wetsuit_baby_blue",nil,10],
["cl3_Wetsuit_baby_pink",nil,10],
["cl3_Wetsuit_burgundy",nil,10],
["cl3_Wetsuit_carbon",nil,10],
["cl3_Wetsuit_cardinal",nil,10],
["cl3_Wetsuit_dark_green",nil,10],
["cl3_Wetsuit_gold",nil,10],
["cl3_Wetsuit_green",nil,10],
["cl3_Wetsuit_grey",nil,10],
["cl3_Wetsuit_lavender",nil,10],
["cl3_Wetsuit_light_blue",nil,10],
["cl3_Wetsuit_light_yellow",nil,10],
["cl3_Wetsuit_lime",nil,10],
["cl3_Wetsuit_marina_blue",nil,10],
["cl3_Wetsuit_navy_blue",nil,10],
["cl3_Wetsuit_orange",nil,10],
["cl3_Wetsuit_pink",nil,10],
["cl3_Wetsuit_purple",nil,10],
["cl3_Wetsuit_red",nil,10],
["cl3_Wetsuit_sand",nil,10],
["cl3_Wetsuit_silver",nil,10],
["cl3_Wetsuit_skin_black",nil,10],
["cl3_Wetsuit_skin_blue",nil,10],
["cl3_Wetsuit_skin_camo",nil,10],
["cl3_Wetsuit_skin_camo_urban",nil,10],
["cl3_Wetsuit_skin_darkgreen",nil,10],
["cl3_Wetsuit_skin_darkred",nil,10],
["cl3_Wetsuit_skin_flame",nil,10],
["cl3_Wetsuit_skin_flame1",nil,10],
["cl3_Wetsuit_skin_flame2",nil,10],
["cl3_Wetsuit_skin_green",nil,10],
["cl3_Wetsuit_skin_orange",nil,10],
["cl3_Wetsuit_skin_pink",nil,10],
["cl3_Wetsuit_skin_purple",nil,10],
["cl3_Wetsuit_skin_red",nil,10],
["cl3_Wetsuit_skin_silver",nil,10],
["cl3_Wetsuit_skin_white",nil,10],
["cl3_Wetsuit_skin_yellow",nil,10],
["cl3_Wetsuit_sky_blue",nil,10]



Goggles/Barbe: 
["SFG_Tac_BeardD",nil,10],
["SFG_Tac_BeardB",nil,10],
["SFG_Tac_BeardG",nil,10],
["SFG_Tac_BeardO",nil,10],
["SFG_Tac_smallBeardD",nil,10],
["SFG_Tac_smallBeardB",nil,10],
["SFG_Tac_smallBeardG",nil,10],
["SFG_Tac_smallBeardO",nil,10],










