1 ""
5 "B_Mortar_01_F"
5 "Land_Sack_F"
5 "B_HMG_01_F"
5 "B_HMG_01_high_F"
5 "B_HMG_01_A_F"
5 "B_GMG_01_F"
5 "B_GMG_01_high_F"
5 "B_GMG_01_A_F"
5 "RPG32_F"
5 "B_static_AA_F"
5 "B_static_AT_F"
5 "bwi_a3_t6a_nta"
5 "bwi_a3_t6c"
5 "B_G_Mortar_01_F"
5 "B_Heli_Light_01_armed_F"
5 "B_Heli_Attack_01_F"
5 "bwi_R_Hydra_HE"
5 "CHO_F35B_LGB"
5 "M_PG_AT"
5 "CHO_F35B_AA"
5 "B_APC_Tracked_01_rcws_F"
5 "B_MBT_01_TUSK_F"
5 "B_APC_Tracked_01_CRV_F"
5 "B_APC_Tracked_01_AA_F"
5 "M_Air_AA"
5 "ModuleOrdnanceRocket_F"
5 "O_Plane_CAS_02_F"
5 "Titan_AA"
5 "Titan_AT"
5 "Titan_AP"
5 "B_MBT_01_arty_F"
5 "B_MBT_01_mlrs_F"
5 "B_UAV_02_F"
5 "M_PG_AT"
5 "B_UAV_02_CAS_F"
5 "B_MRAP_01_gmg_F"
5 "O_Heli_Light_02_v2_F"
5 "bwi_a3_t6a_nta"
5 "NLAW_F"
5 "B_APC_Wheeled_01_cannon_F"
5 "O_MRAP_02_hmg_F" 
5 "B_UGV_01_rcws_F"
5 "O_Mortar_01_F"
5 "O_HMG_01_F"
5 "O_HMG_01_high_F"
5 "O_HMG_01_A_F"
5 "O_GMG_01_F"
5 "O_GMG_01_high_F"
5 "O_GMG_01_A_F"
5 "O_static_AA_F"
5 "O_static_AT_F"
5 "O_G_Mortar_01_F"
5 "O_Heli_Light_02_F"
5 "O_Heli_Attack_02_F"
5 "O_APC_Tracked_02_cannon_F"
5 "O_APC_Tracked_02_AA_F"
5 "O_MBT_02_cannon_F"
5 "O_MBT_02_arty_F"
5 "O_UAV_01_F"
5 "O_UAV_02_F"
5 "O_UAV_02_CAS_F"
5 "O_MRAP_02_hmg_F"
5 "O_MRAP_02_gmg_F"
5 "O_APC_Wheeled_02_rcws_F"
5 "O_UGV_01_rcws_F"
5 "I_Mortar_01_F"
5 "I_HMG_01_F"
5 "I_HMG_01_high_F"
5 "I_HMG_01_A_F"
5 "I_GMG_01_F"
5 "I_GMG_01_high_F"
5 "I_GMG_01_A_F"
5 "I_static_AA_F"
5 "I_static_AT_F"
5 "I_G_Mortar_01_F"
5 "I_Heli_light_03_F"
5 "I_APC_tracked_03_cannon_F"
5 "I_MBT_03_cannon_F"
5 "Weapon_launch_RPG32_F"
5 "I_UAV_01_F"
5 "I_UAV_02_F"
5 "I_UAV_02_CAS_F"
5 "I_MRAP_03_hmg_F"
5 "I_MRAP_03_gmg_F"
5 "I_APC_Wheeled_03_cannon_F"
5 "I_UGV_01_rcws"
5 "SeaGull"
5 "Land_WoodenTable_small_F"
5 "Land_Notepad_F"
5 "B_Heli_Transport_03_F"
5 "optic_Nightstalker"
5 "M_Titan_AA"
5 "M_Titan_AT"
5 "optic_tws_mg"
5 "M_NLAW_AT_F"
5 "optic_tws"
5 "B_GMG_01_F"
5 "B_GMG_01_high_F"
5 "B_GMG_01_A_F"
5 "B_Mortar_01_F"
5 "B_HMG_01_F"
5 "B_Plane_CAS_01_F"
5 "B_APC_Tracked_01_rcws_F"
5 "B_APC_Tracked_01_AA_F"
5 "B_APC_Tracked_01_CRV_F"
5 "B_MBT_01_arty_F"
5 "B_MBT_01_mlrs_F"
5 "B_static_AA_F"
5 "B_static_AT_F"
5 "O_HMG_01_F"